{
  "imports": {
    "wtce/": "./src/"
  },
  "tasks": {
    "dev": "echo 'import \"wtce/cmd_server.ts\"' | deno run --watch --allow-net --allow-read=. -A - page_view.ts data.csv",
    "render": "echo 'import \"wtce/cmd_render.ts\"' | deno run --allow-net --allow-read=. - page_view.ts data.csv",
    "test": "deno test -A",
    "check": "deno check page_view.ts src/cmd_render.ts src/cmd_server.ts && deno lint",
  },
  "compilerOptions": {
    "lib": [
      "deno.window",
      "dom"
    ]
  },
}